[  
   "Mozilla/5.0 (Windows; U; ; en-NZ) AppleWebKit/527  (KHTML, like Gecko, Safari/419.3) Arora/0.8.0",
   "Mozilla/4.0 (compatible; MSIE 7.0; Windows NT 5.1;…C 4.0; .NET CLR 2.0.50727; .NET CLR 3.0.04506.30)",
   "Mozilla/5.0 (Windows NT 6.1; WOW64) AppleWebKit/53… Beamrise/17.2.0.9 Chrome/17.0.939.0 Safari/535.8",
   "Mozilla/5.0 (Windows NT 6.1; WOW64) AppleWebKit/53…HTML, like Gecko) Chrome/22.0.1207.1 Safari/537.1",
   "Mozilla/5.0 (Windows NT 6.1; WOW64) AppleWebKit/53…HTML like Gecko) Chrome/28.0.1469.0 Safari/537.36",
   "Mozilla/5.0 (Windows NT 6.2; WOW64) AppleWebKit/53…HTML like Gecko) Chrome/28.0.1469.0 Safari/537.36",
   "Mozilla/5.0 (Windows NT 6.2; Win64; x64) AppleWebK…TML, like Gecko) Chrome/32.0.1667.0 Safari/537.36",
   "Mozilla/5.0 (Windows NT 6.0; rv:14.0) Gecko/20100101 Firefox/14.0.1",
   "Mozilla/5.0 (Windows NT 6.1; WOW64; rv:15.0) Gecko/20120427 Firefox/15.0a1",
   "Mozilla/5.0 (Windows NT 6.2; Win64; x64; rv:16.0) Gecko/16.0 Firefox/16.0",
   "Mozilla/5.0 (Windows NT 6.2; rv:19.0) Gecko/20121129 Firefox/19.0",
   "Mozilla/5.0 (Windows NT 6.1; rv:21.0) Gecko/20130401 Firefox/21.0",
   "Mozilla/5.0 (Windows NT 6.1; Win64; x64; rv:25.0) Gecko/20100101 Firefox/25.0",
   "iTunes/9.0.2 (Windows; N)",
   "Mozilla/5.0 (compatible; Konqueror/4.5; Windows) KHTML/4.5.4 (like Gecko)",
   "Mozilla/4.0 (compatible; MSIE 7.0; Windows NT 6.1;… CLR 3.0.30729; Media Center PC 6.0; Maxthon 2.0)",
   "Mozilla/5.0 (Windows; U; Windows NT 6.0; en-US) Ap… (KHTML, like Gecko) Maxthon/3.0.8.2 Safari/533.1",
   "Mozilla/5.0 (Windows NT 6.1; WOW64) AppleWebKit/53…xthon/4.0.0.2000 Chrome/22.0.1229.79 Safari/537.1",
   "Mozilla/4.0 (compatible; MSIE 6.0; Windows NT 5.1)",
   "Mozilla/4.0 (compatible; MSIE 7.0; Windows NT 6.0)",
   "Mozilla/4.0 (compatible; MSIE 8.0; Windows NT 5.1;…1022; .NET CLR 3.0.4506.2152; .NET CLR 3.5.30729)",
   "Mozilla/4.0 (compatible; MSIE 8.0; Windows NT 6.1; Trident/4.0)",
   "Mozilla/4.0 (compatible; MSIE 7.0; Windows NT 6.0; Trident/4.0)",
   "Mozilla/4.0 (compatible; MSIE 8.0; Windows NT 6.0; Trident/4.0)",
   "Mozilla/4.0 (compatible; MSIE 7.0; Windows NT 6.0; Trident/5.0)",
   "Mozilla/5.0 (compatible; MSIE 9.0; Windows NT 6.1; Trident/5.0)",
   "Mozilla/5.0 (compatible; MSIE 9.0; Windows NT 6.2; Trident/5.0)",
   "Mozilla/5.0 (compatible; MSIE 9.0; Windows NT 6.2; WOW64; Trident/5.0)",
   "Mozilla/5.0 (compatible; MSIE 9.0; Windows NT 6.1;…Center PC 6.0; InfoPath.3; MS-RTC LM 8; Zune 4.7)",
   "Mozilla/5.0 (compatible; MSIE 10.0; Windows NT 6.1; WOW64; Trident/6.0)",
   "Mozilla/4.0 (compatible; MSIE 7.0; Windows NT 6.1; Trident/6.0)",
   "Mozilla/5.0 (compatible; MSIE 10.6; Windows NT 6.1…30729; .NET CLR 2.0.50727) 3gpp-gba UNTRUSTED/1.0",
   "Mozilla/5.0 (Windows NT 6.1; WOW64; Trident/7.0; rv:11.0) like Gecko",
   "Mozilla/5.0 (Windows NT 6.3; Trident/7.0; rv:11.0) like Gecko",
   "Mozilla/4.0 (compatible; MSIE 7.0; Windows NT 6.3; Trident/7.0; .NET4.0E; .NET4.0C)",
   "Opera/9.80 (Windows NT 6.1; U; en) Presto/2.7.62 Version/11.01",
   "Opera/9.80 (Windows NT 6.0) Presto/2.12.388 Version/12.14",
   "Opera/9.80 (Windows NT 6.1; WOW64) Presto/2.12.388 Version/12.16",
   "Mozilla/5.0 (Windows NT 6.1; WOW64) AppleWebKit/53…Chrome/27.0.1453.12 Safari/537.36 OPR/14.0.1116.4",
   "Mozilla/5.0 (Windows NT 6.1) AppleWebKit/537.36 (K….29 Safari/537.36 OPR/15.0.1147.24 (Edition Next)",
   "Mozilla/5.0 (Windows NT 6.3; WOW64) AppleWebKit/53…hrome/31.0.1650.57 Safari/537.36 OPR/18.0.1284.49",
   "Mozilla/5.0 (Windows NT 6.1; WOW64) AppleWebKit/53…hrome/32.0.1700.76 Safari/537.36 OPR/19.0.1326.56",
   "Mozilla/5.0 (Windows; U; Windows NT 5.2; en-US) Ap…(KHTML, like Gecko) Version/5.0.1 Safari/533.17.8",
   "Mozilla/5.0 (Windows; U; Windows NT 6.1; en-US) Ap…(KHTML, like Gecko) Version/5.0.2 Safari/533.18.5",
   "Mozilla/5.0 (Windows; U; Windows NT 6.2; es-US ) A…0.0 (KHTML like Gecko) Version/6.0 Safari/8900.00",
   "Mozilla/5.0 (Windows; U; Windows NT 6.1; en-GB; rv…ecko/20110123 (like Firefox/3.x) SeaMonkey/2.0.12",
   "Mozilla/5.0 (Windows NT 5.2; rv:10.0.1) Gecko/20100101 Firefox/10.0.1 SeaMonkey/2.7.1",
   "Mozilla/5.0 (Windows NT 6.1; WOW64; rv:12.0) Gecko/20120422 Firefox/12.0 SeaMonkey/2.9",
   "Mozilla/5.0 (Macintosh; Intel Mac OS X 10.6; rv:2.0.1) Gecko/20100101 Firefox/4.0.1 Camino/2.2.1",
   "Mozilla/5.0 (Macintosh; Intel Mac OS X 10.6; rv:2.…) Gecko/20100907 Firefox/4.0b6pre Camino/2.2a1pre",
   "Mozilla/5.0 (Macintosh; Intel Mac OS X 10_8_4) App…TML like Gecko) Chrome/26.0.1410.63 Safari/537.31",
   "Mozilla/5.0 (Macintosh; Intel Mac OS X 1083) Apple…HTML like Gecko) Chrome/28.0.1469.0 Safari/537.36",
   "Mozilla/5.0 (Macintosh; Intel Mac OS X 10_9_0) App…TML, like Gecko) Chrome/32.0.1664.3 Safari/537.36",
   "Mozilla/5.0 (Macintosh; Intel Mac OS X 10.7; rv:20.0) Gecko/20100101 Firefox/20.0",
   "Mozilla/5.0 (Macintosh; Intel Mac OS X 10.8; rv:21.0) Gecko/20100101 Firefox/21.0",
   "Mozilla/5.0 (Macintosh; Intel Mac OS X 10.6; rv:25.0) Gecko/20100101 Firefox/25.0",
   "iTunes/4.2 (Macintosh; U; PPC Mac OS X 10.2)",
   "iTunes/9.0.3 (Macintosh; U; Intel Mac OS X 10_6_2; en-ca)",
   "Mozilla/5.0 (Macintosh; U; Intel Mac OS X; en-US) …ike Gecko, Safari/528.16) OmniWeb/v622.8.0.112941",
   "Mozilla/5.0 (Macintosh; U; Intel Mac OS X 10_5_6; …HTML, like Gecko, Safari/528.16) OmniWeb/v622.8.0",
   "Opera/9.20 (Macintosh; Intel Mac OS X; U; en)",
   "Opera/9.64 (Macintosh; PPC Mac OS X; U; en) Presto/2.1.1",
   "Opera/9.80 (Macintosh; Intel Mac OS X; U; en) Presto/2.6.30 Version/10.61",
   "Opera/9.80 (Macintosh; Intel Mac OS X 10.4.11; U; en) Presto/2.7.62 Version/11.00",
   "Opera/9.80 (Macintosh; Intel Mac OS X 10.6.8; U; fr) Presto/2.9.168 Version/11.52",
   "Mozilla/5.0 (Macintosh; U; Intel Mac OS X 10_6_2; …KHTML, like Gecko) Version/4.0.4 Safari/531.21.10",
   "Mozilla/5.0 (Macintosh; U; Intel Mac OS X 10_6_5; …(KHTML, like Gecko) Version/5.0.3 Safari/533.19.4",
   "Mozilla/5.0 (Macintosh; U; Intel Mac OS X 10_6_6; …KHTML, like Gecko) Version/5.0.4 Safari/533.20.27",
   "Mozilla/5.0 (Macintosh; U; Intel Mac OS X 10_7; en…8 (KHTML, like Gecko) Version/5.1 Safari/534.20.8",
   "Mozilla/5.0 (Macintosh; Intel Mac OS X 10_7_3) App…KHTML, like Gecko) Version/5.1.3 Safari/534.53.10",
   "Mozilla/5.0 (Macintosh; Intel Mac OS X 10_6_8) App…(KHTML, like Gecko) Version/5.1.7 Safari/534.57.2",
   "Mozilla/5.0 (Macintosh; Intel Mac OS X 10_7_5) App…(KHTML like Gecko) Version/6.0.2 Safari/536.26.17",
   "Mozilla/5.0 (Macintosh; Intel Mac OS X 10.5; rv:10….1) Gecko/20100101 Firefox/10.0.1 SeaMonkey/2.7.1",
   "Mozilla/5.0 (Macintosh; U; Intel Mac OS X 10_6_3; …) Version/5.0 Safari/533.16 Silk-Accelerated=true",
   "Mozilla/5.0 (X11; U; Linux; en-US) AppleWebKit/527  (KHTML, like Gecko, Safari/419.3) Arora/0.10.1",
   "Mozilla/5.0 (X11; Linux x86_64) AppleWebKit/536.5 …HTML, like Gecko) Chrome/19.0.1084.9 Safari/536.5",
   "Mozilla/5.0 (X11; CrOS i686 2268.111.0) AppleWebKi…ML, like Gecko) Chrome/20.0.1132.57 Safari/536.11",
   "Mozilla/5.0 (X11; Linux x86_64) AppleWebKit/537.4 …HTML like Gecko) Chrome/22.0.1229.56 Safari/537.4",
   "Mozilla/5.0 (X11; Linux i686) AppleWebKit/537.36 (…TML, like Gecko) Chrome/28.0.1478.0 Safari/537.36",
   "Mozilla/5.0 (X11; Linux i686) AppleWebKit/537.22 (…/25.0.1364.160 Chrome/25.0.1364.160 Safari/537.22",
   "Mozilla/4.0 (compatible; Dillo 3.0)",
   "Mozilla/5.0 (X11; U; Linux i686; en-us) AppleWebKi…(KHTML, like Gecko, Safari/528.5 ) lt-GtkLauncher",
   "Mozilla/5.0 (X11; Linux i686; rv:16.0) Gecko/20100101 Firefox/16.0",
   "Mozilla/5.0 (X11; U; Linux i686; rv:19.0) Gecko/20100101 Slackware/13 Firefox/19.0",
   "Mozilla/5.0 (X11; Ubuntu; Linux x86_64; rv:20.0) Gecko/20100101 Firefox/20.0",
   "Mozilla/5.0 (X11; Linux i686; rv:20.0) Gecko/20100101 Firefox/20.0",
   "Mozilla/5.0 (X11; Linux i686; rv:25.0) Gecko/20100101 Firefox/25.0",
   "Mozilla/5.0 (X11; Linux i686; rv:28.0) Gecko/20100101 Firefox/28.0",
   "Mozilla/5.0 (X11; U; Linux i686; en-US; rv:1.9.0.8) Gecko Galeon/2.0.6 (Ubuntu 2.0.6-2)",
   "Mozilla/5.0 (X11; U; Linux i686; en-US; rv:1.8.1.16) Gecko/20080716 (Gentoo) Galeon/2.0.6",
   "Mozilla/5.0 (X11; U; Linux x86_64; en-US; rv:1.9.1.13) Gecko/20100916 Iceape/2.0.8",
   "Mozilla/5.0 (X11; Linux i686; rv:14.0) Gecko/20100101 Firefox/14.0.1 Iceweasel/14.0.1",
   "Mozilla/5.0 (X11; Linux x86_64; rv:15.0) Gecko/20120724 Debian Iceweasel/15.02",
   "Mozilla/5.0 (X11; Linux x86_64; rv:19.0) Gecko/20100101 Firefox/19.0 Iceweasel/19.0.2",
   "Mozilla/5.0 (compatible; Konqueror/4.2; Linux) KHTML/4.2.4 (like Gecko) Slackware/13.0",
   "Mozilla/5.0 (compatible; Konqueror/4.3; Linux) KHTML/4.3.1 (like Gecko) Fedora/4.3.1-3.fc11",
   "Mozilla/5.0 (compatible; Konqueror/4.4; Linux) KHTML/4.4.1 (like Gecko) Fedora/4.4.1-1.fc12",
   "Mozilla/5.0 (compatible; Konqueror/4.4; Linux 2.6.…ric; X11; en_US) KHTML/4.4.3 (like Gecko) Kubuntu",
   "Mozilla/5.0 (compatible; Konqueror/4.4; Linux 2.6.…ric; X11; en_US) KHTML/4.4.3 (like Gecko) Kubuntu",
   "Mozilla/5.0 (X11; Linux 3.8-6.dmz.1-liquorix-686) KHTML/4.8.4 (like Gecko) Konqueror/4.8",
   "Mozilla/5.0 (X11; Linux) KHTML/4.9.1 (like Gecko) Konqueror/4.9",
   "Midori/0.1.10 (X11; Linux i686; U; en-us) WebKit/(531).(2) ",
   "Mozilla/5.0 (X11; U; Linux x86_64; en-US; rv:1.9.0.3) Gecko/2008092814 (Debian-3.0.1-1)",
   "Mozilla/5.0 (X11; U; Linux i686; en-US; rv:1.9a3pre) Gecko/20070330",
   "Opera/9.64 (X11; Linux i686; U; Linux Mint; nb) Presto/2.1.1",
   "Opera/9.80 (X11; Linux i686; U; en) Presto/2.2.15 Version/10.10",
   "Opera/9.80 (X11; Linux x86_64; U; pl) Presto/2.7.62 Version/11.00",
   "Opera/9.80 (X11; Linux i686) Presto/2.12.388 Version/12.16",
   "Mozilla/5.0 (X11; Linux x86_64) AppleWebKit/537.36…e/33.0.1750.166 Safari/537.36 OPR/20.0.1396.73172",
   "Mozilla/5.0 (X11; Linux i686) AppleWebKit/534.34 (KHTML, like Gecko) QupZilla/1.2.0 Safari/534.34",
   "Mozilla/5.0 (X11; Linux i686; rv:10.0.1) Gecko/20100101 Firefox/10.0.1 SeaMonkey/2.7.1",
   "Mozilla/5.0 (X11; Linux i686; rv:12.0) Gecko/20120502 Firefox/12.0 SeaMonkey/2.9.1",
   "Mozilla/5.0 (X11; U; Linux x86_64; us; rv:1.9.1.19) Gecko/20110430 shadowfox/7.0 (like Firefox/7.0",
   "Mozilla/5.0 (X11; U; Linux i686; it; rv:1.9.2.3) Gecko/20100406 Firefox/3.6.3 (Swiftfox)",
   "Uzbl (Webkit 1.3) (Linux i686 [i686])",
   "Mozilla/5.0 (Unknown; U; UNIX BSD/SYSV system; C -…7  (KHTML, like Gecko, Safari/419.3) Arora/0.10.2",
   "Mozilla/5.0 (X11; FreeBSD amd64) AppleWebKit/536.5…HTML like Gecko) Chrome/19.0.1084.56 Safari/536.5",
   "Mozilla/5.0 (X11; FreeBSD amd64) AppleWebKit/537.4…HTML like Gecko) Chrome/22.0.1229.79 Safari/537.4",
   "Mozilla/5.0 (X11; U; OpenBSD arm; en-us) AppleWebK…(KHTML, like Gecko) Safari/531.2  Epiphany/2.30.0",
   "Mozilla/5.0 (X11; U; FreeBSD amd64; en-us) AppleWe…(KHTML, like Gecko) Safari/531.2  Epiphany/2.30.0",
   "Mozilla/5.0 (X11; U; SunOS i86pc; en-US; rv:1.9.1b3) Gecko/20090429 Firefox/3.1b3",
   "Mozilla/5.0 (X11; U; OpenBSD i386; en-US; rv:1.9.1) Gecko/20090702 Firefox/3.5",
   "Mozilla/5.0 (X11; U; FreeBSD i386; de-CH; rv:1.9.2.8) Gecko/20100729 Firefox/3.6.8",
   "Mozilla/5.0 (X11; FreeBSD amd64; rv:5.0) Gecko/20100101 Firefox/5.0",
   "Mozilla/5.0 (compatible; Konqueror/4.1; DragonFly) KHTML/4.1.4 (like Gecko)",
   "Mozilla/5.0 (compatible; Konqueror/4.1; OpenBSD) KHTML/4.1.4 (like Gecko)",
   "Mozilla/5.0 (compatible; Konqueror/4.5; NetBSD 5.0.2; X11; amd64; en_US) KHTML/4.5.4 (like Gecko)",
   "Mozilla/5.0 (compatible; Konqueror/4.5; FreeBSD) KHTML/4.5.4 (like Gecko)",
   "Mozilla/5.0 (X11; U; NetBSD amd64; en-US; rv:1.9.2.15) Gecko/20110308 Namoroka/3.6.15",
   "NetSurf/1.2 (NetBSD; amd64)",
   "Opera/9.80 (X11; FreeBSD 8.1-RELEASE i386; Edition Next) Presto/2.12.388 Version/12.10",
   "Mozilla/5.0 (X11; U; SunOS i86pc; en-US; rv:1.8.1.12) Gecko/20080303 SeaMonkey/1.1.8"
]